Often-used Scripts | Dynamic Data
…
# Missing Values
 # R
 
# count missing by columns
colSums(is.na(df)) 

## dimension1 dimension2   measure1   measure2 
##        163        163        143        156

# drop rows with missing
na.omit(df) 

## # A tibble: 518 x 4
##    dimension1 dimension2 measure1 measure2
##    <chr>      <chr>         <int>    <int>
##  1 III        B                 3        8
##  2 I          A                 4       10
##  3 I          A                 9        1
##  4 III        A                 8        8
##  5 II         C                 2        9
##  6 III        C                 7        1
##  7 I          A                 9        6
##  8 I          A                 2        4
##  9 II         A                 1        9
## 10 I          B                 9        2
## # … with 508 more rows

# drop rows with all missing
df[rowSums(!is.na(df)) > 0, ] 

## # A tibble: 1,000 x 4
##    dimension1 dimension2 measure1 measure2
##    <chr>      <chr>         <int>    <int>
##  1 I          <NA>              7        7
##  2 III        B                 3        8
##  3 I          A                 4       10
##  4 II         <NA>              7        3
##  5 I          A                 9        1
##  6 III        A                10       NA
##  7 III        A                 8        8
##  8 <NA>       C                 2        7
##  9 II         C                 2        9
## 10 III        C                 7        1
## # … with 990 more rows

# drop columns with all missing
df[colSums(!is.na(df)) > 0]

## # A tibble: 1,000 x 4
##    dimension1 dimension2 measure1 measure2
##    <chr>      <chr>         <int>    <int>
##  1 I          <NA>              7        7
##  2 III        B                 3        8
##  3 I          A                 4       10
##  4 II         <NA>              7        3
##  5 I          A                 9        1
##  6 III        A                10       NA
##  7 III        A                 8        8
##  8 <NA>       C                 2        7
##  9 II         C                 2        9
## 10 III        C                 7        1
## # … with 990 more rows

# fill all missing by 0
df %>% replace(., is.na(.), 0)

## # A tibble: 1,000 x 4
##    dimension1 dimension2 measure1 measure2
##    <chr>      <chr>         <dbl>    <dbl>
##  1 I          0                 7        7
##  2 III        B                 3        8
##  3 I          A                 4       10
##  4 II         0                 7        3
##  5 I          A                 9        1
##  6 III        A                10        0
##  7 III        A                 8        8
##  8 0          C                 2        7
##  9 II         C                 2        9
## 10 III        C                 7        1
## # … with 990 more rows

# fill missing by columns
df %>% replace_na(list(dimension1 = "Unknown", measure1 = 0)) 

## # A tibble: 1,000 x 4
##    dimension1 dimension2 measure1 measure2
##    <chr>      <chr>         <dbl>    <int>
##  1 I          <NA>              7        7
##  2 III        B                 3        8
##  3 I          A                 4       10
##  4 II         <NA>              7        3
##  5 I          A                 9        1
##  6 III        A                10       NA
##  7 III        A                 8        8
##  8 Unknown    C                 2        7
##  9 II         C                 2        9
## 10 III        C                 7        1
## # … with 990 more rows
…
# fill all missing by 0
df.fillna(0)

# fill missing by columns
df.fillna(value = {"dimension1": "Unknown", "measure1": 0})

# Unique
 # R
 
# unique row
df %>% distinct()

## # A tibble: 766 x 4
##    dimension1 dimension2 measure1 measure2
##    <chr>      <chr>         <int>    <int>
##  1 I          <NA>              7        7
##  2 III        B                 3        8
##  3 I          A                 4       10
##  4 II         <NA>              7        3
##  5 I          A                 9        1
##  6 III        A                10       NA
##  7 III        A                 8        8
##  8 <NA>       C                 2        7
##  9 II         C                 2        9
## 10 III        C                 7        1
## # … with 756 more rows
…
left_join(df, df2,
  by = c(
    "dimension1" = "dimension3",
    "dimension2" = "dimension4"
  )
)

## # A tibble: 1,000 x 6
##    dimension1 dimension2 measure1 measure2 measure3 measure4
##    <chr>      <chr>         <int>    <int>    <int>    <int>
##  1 I          <NA>              7        7      229      195
##  2 III        B                 3        8      314      337
##  3 I          A                 4       10      461      480
##  4 II         <NA>              7        3      226      180
##  5 I          A                 9        1      461      480
##  6 III        A                10       NA      353      356
##  7 III        A                 8        8      353      356
##  8 <NA>       C                 2        7      206      226
##  9 II         C                 2        9      340      333
## 10 III        C                 7        1      386      442
## # … with 990 more rows
…
